# `filter_deaths()` removes invalid rows

    Code
      deaths
    Output
      # A tibble: 9,999 x 2
         die_from_illness_ind inv_death_dt
         <chr>                <chr>       
       1 Y                    2021-03-26  
       2 Y                    2021-03-26  
       3 Y                    2021-03-26  
       4 Y                    2021-03-26  
       5 Y                    2021-03-26  
       6 Y                    2021-03-26  
       7 Y                    2021-03-26  
       8 Y                    2021-03-26  
       9 Y                    2021-03-26  
      10 Y                    2021-03-26  
      # ... with 9,989 more rows
