# `filter_peds()` is equal to snapshot

    Code
      tbl_peds
    Output
      # A tibble: 19,990 x 4
         patient_dob specimen_coll_dt inv_start_dt         age_in_years
         <date>      <date>           <chr>                <chr>       
       1 2002-05-01  2020-03-10       2020-03-10T00:00:00Z 17          
       2 2002-05-01  2020-03-10       2020-03-10T00:00:00Z 17          
       3 2002-05-01  2020-03-10       2020-03-10T00:00:00Z 17          
       4 2002-05-01  2020-03-10       2020-03-10T00:00:00Z 17          
       5 2002-05-01  2020-03-10       2020-03-10T00:00:00Z 17          
       6 2002-05-01  2020-03-10       2020-03-10T00:00:00Z 17          
       7 2002-05-01  2020-03-10       2020-03-10T00:00:00Z 17          
       8 2002-05-01  2020-03-10       2020-03-10T00:00:00Z 17          
       9 2002-05-01  2020-03-10       2020-03-10T00:00:00Z 17          
      10 2002-05-01  2020-03-10       2020-03-10T00:00:00Z 17          
      # ... with 19,980 more rows
