# `filter_active()` is equal to snapshot

    Code
      tbl_active
    Output
      # A tibble: 900 x 5
         die_from_illness~ inv_death_dt illness_onset_dt specimen_coll_dt inv_start_dt
         <chr>             <chr>        <chr>            <chr>            <chr>       
       1 N                 2021-03-22T~ 2021-03-26T00:0~ 2021-03-26T00:0~ 2021-03-26T~
       2 N                 2021-03-22T~ 2021-03-26T00:0~ 2021-03-26T00:0~ 2021-03-26T~
       3 N                 2021-03-22T~ 2021-03-26T00:0~ 2021-03-26T00:0~ 2021-03-26T~
       4 N                 2021-03-22T~ 2021-03-26T00:0~ 2021-03-26T00:0~ 2021-03-26T~
       5 N                 2021-03-22T~ 2021-03-26T00:0~ 2021-03-26T00:0~ 2021-03-26T~
       6 N                 2021-03-22T~ 2021-03-26T00:0~ 2021-03-26T00:0~ 2021-03-26T~
       7 N                 2021-03-22T~ 2021-03-26T00:0~ 2021-03-26T00:0~ 2021-03-26T~
       8 N                 2021-03-22T~ 2021-03-26T00:0~ 2021-03-26T00:0~ 2021-03-26T~
       9 N                 2021-03-22T~ 2021-03-26T00:0~ 2021-03-26T00:0~ 2021-03-26T~
      10 N                 2021-03-22T~ 2021-03-26T00:0~ 2021-03-26T00:0~ 2021-03-26T~
      # ... with 890 more rows
