# `vac_map_pct()` matches snapshot

    Code
      plt[["data"]]
    Output
      # A tibble: 30 x 6
         zip         n pop_2019                          geometry vac_pct zip_pct_lbl 
         <chr>   <int>    <int>   <MULTIPOLYGON [US_survey_foot]>   <dbl> <chr>       
       1 38002   11250    40430 (((883025.1 352877, 882915 35286~    27.8 "38002\n28%"
       2 38016   11250    48325 (((860282.8 334206.6, 860373.1 3~    23.3 "38016\n23%"
       3 38017   11250    55073 (((881714.7 331007.1, 881710.5 3~    20.4 "38017\n20%"
       4 38018+~ 22500    42944 (((881770.2 353083.4, 881880.7 3~    52.4 "38018+3802~
       5 38053   11250    26282 (((865635.1 396086.9, 867720.6 3~    42.8 "38053\n43%"
       6 38103+~ 33750    44055 (((759942 335694.8, 759983.7 335~    76.6 "38103+3810~
       7 38106+~ 22500    30120 (((758217.9 318401.2, 759098.4 3~    74.7 "38106+3812~
       8 38107+~ 22500    33410 (((762067.9 336711.2, 762423 336~    67.3 "38107+3810~
       9 38109   11250    44911 (((756515.4 293812.6, 756522.7 2~    25.0 "38109\n25%"
      10 38111   11250    42846 (((794333.7 318151.8, 794321.5 3~    26.3 "38111\n26%"
      # ... with 20 more rows
…
